﻿id;province_id;city_id;district_id;village_id;name;created_at;updated_at
2;11;1101;;;KABUPATEN SIMEULUE;2016-09-19 16:55:42.618;2016-09-19 16:55:42.618
151;11;1102;;;KABUPATEN ACEH SINGKIL;2016-09-19 16:55:44.218;2016-09-19 16:55:44.218
283;11;1103;;;KABUPATEN ACEH SELATAN;2016-09-19 16:55:45.885;2016-09-19 16:55:45.885
6573;11;1172;;;KOTA SABANG;2016-09-19 16:56:54.164;2016-09-19 16:56:54.164
562;11;1104;;;KABUPATEN ACEH TENGGARA;2016-09-19 16:55:48.644;2016-09-19 16:55:48.644
964;11;1105;;;KABUPATEN ACEH TIMUR;2016-09-19 16:55:52.979;2016-09-19 16:55:52.979
1503;11;1106;;;KABUPATEN ACEH TENGAH;2016-09-19 16:56:00.843;2016-09-19 16:56:00.843
1813;11;1107;;;KABUPATEN ACEH BARAT;2016-09-19 16:56:03.936;2016-09-19 16:56:03.936
2148;11;1108;;;KABUPATEN ACEH BESAR;2016-09-19 16:56:07.828;2016-09-19 16:56:07.828
2776;11;1109;;;KABUPATEN PIDIE;2016-09-19 16:56:14.53;2016-09-19 16:56:14.53
3531;11;1110;;;KABUPATEN BIREUEN;2016-09-19 16:56:22.332;2016-09-19 16:56:22.332
4158;11;1111;;;KABUPATEN ACEH UTARA;2016-09-19 16:56:29.25;2016-09-19 16:56:29.25
5200;11;1113;;;KABUPATEN GAYO LUES;2016-09-19 16:56:40.186;2016-09-19 16:56:40.186
5038;11;1112;;;KABUPATEN ACEH BARAT DAYA;2016-09-19 16:56:38.144;2016-09-19 16:56:38.144
5357;11;1114;;;KABUPATEN ACEH TAMIANG;2016-09-19 16:56:41.595;2016-09-19 16:56:41.595
5583;11;1115;;;KABUPATEN NAGAN RAYA;2016-09-19 16:56:43.762;2016-09-19 16:56:43.762
5816;11;1116;;;KABUPATEN ACEH JAYA;2016-09-19 16:56:46.012;2016-09-19 16:56:46.012
5998;11;1117;;;KABUPATEN BENER MERIAH;2016-09-19 16:56:47.913;2016-09-19 16:56:47.913
6242;11;1118;;;KABUPATEN PIDIE JAYA;2016-09-19 16:56:50.763;2016-09-19 16:56:50.763
6473;11;1171;;;KOTA BANDA ACEH;2016-09-19 16:56:53.047;2016-09-19 16:56:53.047
6594;11;1173;;;KOTA LANGSA;2016-09-19 16:56:54.364;2016-09-19 16:56:54.364
6666;11;1174;;;KOTA LHOKSEUMAWE;2016-09-19 16:56:55.115;2016-09-19 16:56:55.115
7009;12;1202;;;KABUPATEN MANDAILING NATAL;2016-09-19 16:56:58.557;2016-09-19 16:56:58.557
6739;11;1175;;;KOTA SUBULUSSALAM;2016-09-19 16:56:55.857;2016-09-19 16:56:55.857
6828;12;1201;;;KABUPATEN NIAS;2016-09-19 16:56:56.707;2016-09-19 16:56:56.707
7440;12;1203;;;KABUPATEN TAPANULI SELATAN;2016-09-19 16:57:03.475;2016-09-19 16:57:03.475
7703;12;1204;;;KABUPATEN TAPANULI TENGAH;2016-09-19 16:57:06.101;2016-09-19 16:57:06.101
7939;12;1205;;;KABUPATEN TAPANULI UTARA;2016-09-19 16:57:08.501;2016-09-19 16:57:08.501
8207;12;1206;;;KABUPATEN TOBA SAMOSIR;2016-09-19 16:57:11.352;2016-09-19 16:57:11.352
8468;12;1207;;;KABUPATEN LABUHAN BATU;2016-09-19 16:57:14.37;2016-09-19 16:57:14.37
8576;12;1208;;;KABUPATEN ASAHAN;2016-09-19 16:57:15.503;2016-09-19 16:57:15.503
8806;12;1209;;;KABUPATEN SIMALUNGUN;2016-09-19 16:57:17.754;2016-09-19 16:57:17.754
9251;12;1210;;;KABUPATEN DAIRI;2016-09-19 16:57:22.389;2016-09-19 16:57:22.389
9436;12;1211;;;KABUPATEN KARO;2016-09-19 16:57:24.439;2016-09-19 16:57:24.439
9723;12;1212;;;KABUPATEN DELI SERDANG;2016-09-19 16:57:27.39;2016-09-19 16:57:27.39
10140;12;1213;;;KABUPATEN LANGKAT;2016-09-19 16:57:31.507;2016-09-19 16:57:31.507
10441;12;1214;;;KABUPATEN NIAS SELATAN;2016-09-19 16:57:35.15;2016-09-19 16:57:35.15
10937;12;1215;;;KABUPATEN HUMBANG HASUNDUTAN;2016-09-19 16:57:40.026;2016-09-19 16:57:40.026
11307;12;1218;;;KABUPATEN SERDANG BEDAGAI;2016-09-19 16:57:43.835;2016-09-19 16:57:43.835
11102;12;1216;;;KABUPATEN PAKPAK BHARAT;2016-09-19 16:57:41.601;2016-09-19 16:57:41.601
11163;12;1217;;;KABUPATEN SAMOSIR;2016-09-19 16:57:42.243;2016-09-19 16:57:42.243
11727;12;1220;;;KABUPATEN PADANG LAWAS UTARA;2016-09-19 16:57:48.328;2016-09-19 16:57:48.328
11568;12;1219;;;KABUPATEN BATU BARA;2016-09-19 16:57:46.661;2016-09-19 16:57:46.661
12125;12;1221;;;KABUPATEN PADANG LAWAS;2016-09-19 16:57:52.179;2016-09-19 16:57:52.179
12442;12;1222;;;KABUPATEN LABUHAN BATU SELATAN;2016-09-19 16:57:56.03;2016-09-19 16:57:56.03
12726;12;1225;;;KABUPATEN NIAS BARAT;2016-09-19 16:57:58.939;2016-09-19 16:57:58.939
12502;12;1223;;;KABUPATEN LABUHAN BATU UTARA;2016-09-19 16:57:56.639;2016-09-19 16:57:56.639
12601;12;1224;;;KABUPATEN NIAS UTARA;2016-09-19 16:57:57.605;2016-09-19 16:57:57.605
13176;12;1276;;;KOTA BINJAI;2016-09-19 16:58:03.49;2016-09-19 16:58:03.49
12840;12;1271;;;KOTA SIBOLGA;2016-09-19 16:58:00.064;2016-09-19 16:58:00.064
12900;12;1273;;;KOTA PEMATANG SIANTAR;2016-09-19 16:58:00.656;2016-09-19 16:58:00.656
12962;12;1274;;;KOTA TEBING TINGGI;2016-09-19 16:58:01.323;2016-09-19 16:58:01.323
12862;12;1272;;;KOTA TANJUNG BALAI;2016-09-19 16:58:00.273;2016-09-19 16:58:00.273
13003;12;1275;;;KOTA MEDAN;2016-09-19 16:58:01.74;2016-09-19 16:58:01.74
13219;12;1277;;;KOTA PADANGSIDIMPUAN;2016-09-19 16:58:03.94;2016-09-19 16:58:03.94
13305;12;1278;;;KOTA GUNUNGSITOLI;2016-09-19 16:58:04.816;2016-09-19 16:58:04.816
13468;13;1302;;;KABUPATEN PESISIR SELATAN;2016-09-19 16:58:06.874;2016-09-19 16:58:06.874
13666;13;1303;;;KABUPATEN SOLOK;2016-09-19 16:58:08.883;2016-09-19 16:58:08.883
13414;13;1301;;;KABUPATEN KEPULAUAN MENTAWAI;2016-09-19 16:58:06.233;2016-09-19 16:58:06.233
13755;13;1304;;;KABUPATEN SIJUNJUNG;2016-09-19 16:58:09.808;2016-09-19 16:58:09.808
13826;13;1305;;;KABUPATEN TANAH DATAR;2016-09-19 16:58:10.717;2016-09-19 16:58:10.717
13994;13;1307;;;KABUPATEN AGAM;2016-09-19 16:58:12.426;2016-09-19 16:58:12.426
14093;13;1308;;;KABUPATEN LIMA PULUH KOTA;2016-09-19 16:58:13.518;2016-09-19 16:58:13.518
13916;13;1306;;;KABUPATEN PADANG PARIAMAN;2016-09-19 16:58:11.584;2016-09-19 16:58:11.584
14347;13;1312;;;KABUPATEN PASAMAN BARAT;2016-09-19 16:58:16.143;2016-09-19 16:58:16.143
14510;13;1373;;;KOTA SAWAH LUNTO;2016-09-19 16:58:18.178;2016-09-19 16:58:18.178
14186;13;1309;;;KABUPATEN PASAMAN;2016-09-19 16:58:14.51;2016-09-19 16:58:14.51
14378;13;1371;;;KOTA PADANG;2016-09-19 16:58:16.485;2016-09-19 16:58:16.485
14552;13;1374;;;KOTA PADANG PANJANG;2016-09-19 16:58:18.586;2016-09-19 16:58:18.586
14571;13;1375;;;KOTA BUKITTINGGI;2016-09-19 16:58:18.794;2016-09-19 16:58:18.794
14236;13;1310;;;KABUPATEN SOLOK SELATAN;2016-09-19 16:58:15.01;2016-09-19 16:58:15.01
14283;13;1311;;;KABUPATEN DHARMASRAYA;2016-09-19 16:58:15.485;2016-09-19 16:58:15.485
14494;13;1372;;;KOTA SOLOK;2016-09-19 16:58:17.961;2016-09-19 16:58:17.961
14667;13;1377;;;KOTA PARIAMAN;2016-09-19 16:58:19.728;2016-09-19 16:58:19.728
14599;13;1376;;;KOTA PAYAKUMBUH;2016-09-19 16:58:19.078;2016-09-19 16:58:19.078
14744;14;1401;;;KABUPATEN KUANTAN SINGINGI;2016-09-19 16:58:20.478;2016-09-19 16:58:20.478
14989;14;1402;;;KABUPATEN INDRAGIRI HULU;2016-09-19 16:58:22.895;2016-09-19 16:58:22.895
15198;14;1403;;;KABUPATEN INDRAGIRI HILIR;2016-09-19 16:58:24.938;2016-09-19 16:58:24.938
15455;14;1404;;;KABUPATEN PELALAWAN;2016-09-19 16:58:27.655;2016-09-19 16:58:27.655
15586;14;1405;;;KABUPATEN S I A K;2016-09-19 16:58:29.172;2016-09-19 16:58:29.172
15732;14;1406;;;KABUPATEN KAMPAR;2016-09-19 16:58:30.614;2016-09-19 16:58:30.614
16004;14;1407;;;KABUPATEN ROKAN HULU;2016-09-19 16:58:33.273;2016-09-19 16:58:33.273
16169;14;1408;;;KABUPATEN BENGKALIS;2016-09-19 16:58:35.123;2016-09-19 16:58:35.123
16333;14;1409;;;KABUPATEN ROKAN HILIR;2016-09-19 16:58:36.724;2016-09-19 16:58:36.724
16770;15;1501;;;KABUPATEN KERINCI;2016-09-19 16:58:41.467;2016-09-19 16:58:41.467
16546;14;1410;;;KABUPATEN KEPULAUAN MERANTI;2016-09-19 16:58:39.258;2016-09-19 16:58:39.258
16657;14;1471;;;KOTA PEKANBARU;2016-09-19 16:58:40.383;2016-09-19 16:58:40.383
16728;14;1473;;;KOTA D U M A I;2016-09-19 16:58:41.05;2016-09-19 16:58:41.05
17074;15;1502;;;KABUPATEN MERANGIN;2016-09-19 16:58:44.442;2016-09-19 16:58:44.442
17314;15;1503;;;KABUPATEN SAROLANGUN;2016-09-19 16:58:46.901;2016-09-19 16:58:46.901
17616;15;1505;;;KABUPATEN MUARO JAMBI;2016-09-19 16:58:50.244;2016-09-19 16:58:50.244
17483;15;1504;;;KABUPATEN BATANG HARI;2016-09-19 16:58:48.71;2016-09-19 16:58:48.71
17783;15;1506;;;KABUPATEN TANJUNG JABUNG TIMUR;2016-09-19 16:58:51.869;2016-09-19 16:58:51.869
17888;15;1507;;;KABUPATEN TANJUNG JABUNG BARAT;2016-09-19 16:58:52.894;2016-09-19 16:58:52.894
18036;15;1508;;;KABUPATEN TEBO;2016-09-19 16:58:54.528;2016-09-19 16:58:54.528
18332;15;1571;;;KOTA JAMBI;2016-09-19 16:58:57.462;2016-09-19 16:58:57.462
18403;15;1572;;;KOTA SUNGAI PENUH;2016-09-19 16:58:58.162;2016-09-19 16:58:58.162
18161;15;1509;;;KABUPATEN BUNGO;2016-09-19 16:58:55.804;2016-09-19 16:58:55.804
18482;16;1601;;;KABUPATEN OGAN KOMERING ULU;2016-09-19 16:58:59.029;2016-09-19 16:58:59.029
18653;16;1602;;;KABUPATEN OGAN KOMERING ILIR;2016-09-19 16:59:01.022;2016-09-19 16:59:01.022
19279;16;1604;;;KABUPATEN LAHAT;2016-09-19 16:59:07.381;2016-09-19 16:59:07.381
19003;16;1603;;;KABUPATEN MUARA ENIM;2016-09-19 16:59:04.564;2016-09-19 16:59:04.564
19678;16;1605;;;KABUPATEN MUSI RAWAS;2016-09-19 16:59:11.666;2016-09-19 16:59:11.666
19892;16;1606;;;KABUPATEN MUSI BANYUASIN;2016-09-19 16:59:14;2016-09-19 16:59:14
20147;16;1607;;;KABUPATEN BANYU ASIN;2016-09-19 16:59:16.467;2016-09-19 16:59:16.467
20471;16;1608;;;KABUPATEN OGAN KOMERING ULU SELATAN;2016-09-19 16:59:19.676;2016-09-19 16:59:19.676
20750;16;1609;;;KABUPATEN OGAN KOMERING ULU TIMUR;2016-09-19 16:59:22.985;2016-09-19 16:59:22.985
21103;16;1610;;;KABUPATEN OGAN ILIR;2016-09-19 16:59:26.678;2016-09-19 16:59:26.678
21609;16;1613;;;KABUPATEN MUSI RAWAS UTARA;2016-09-19 16:59:31.813;2016-09-19 16:59:31.813
21361;16;1611;;;KABUPATEN EMPAT LAWANG;2016-09-19 16:59:29.271;2016-09-19 16:59:29.271
21528;16;1612;;;KABUPATEN PENUKAL ABAB LEMATANG ILIR;2016-09-19 16:59:30.913;2016-09-19 16:59:30.913
21706;16;1671;;;KOTA PALEMBANG;2016-09-19 16:59:33.013;2016-09-19 16:59:33.013
21874;16;1673;;;KOTA PAGAR ALAM;2016-09-19 16:59:34.88;2016-09-19 16:59:34.88
21997;17;1701;;;KABUPATEN BENGKULU SELATAN;2016-09-19 16:59:36.155;2016-09-19 16:59:36.155
21830;16;1672;;;KOTA PRABUMULIH;2016-09-19 16:59:34.422;2016-09-19 16:59:34.422
21915;16;1674;;;KOTA LUBUKLINGGAU;2016-09-19 16:59:35.364;2016-09-19 16:59:35.364
22168;17;1702;;;KABUPATEN REJANG LEBONG;2016-09-19 16:59:37.939;2016-09-19 16:59:37.939
22340;17;1703;;;KABUPATEN BENGKULU UTARA;2016-09-19 16:59:39.673;2016-09-19 16:59:39.673
22584;17;1704;;;KABUPATEN KAUR;2016-09-19 16:59:42.182;2016-09-19 16:59:42.182
22795;17;1705;;;KABUPATEN SELUMA;2016-09-19 16:59:44.583;2016-09-19 16:59:44.583
23429;17;1709;;;KABUPATEN BENGKULU TENGAH;2016-09-19 16:59:51.101;2016-09-19 16:59:51.101
23303;17;1708;;;KABUPATEN KEPAHIANG;2016-09-19 16:59:49.775;2016-09-19 16:59:49.775
23012;17;1706;;;KABUPATEN MUKOMUKO;2016-09-19 16:59:46.783;2016-09-19 16:59:46.783
23180;17;1707;;;KABUPATEN LEBONG;2016-09-19 16:59:48.617;2016-09-19 16:59:48.617
23583;17;1771;;;KOTA BENGKULU;2016-09-19 16:59:52.66;2016-09-19 16:59:52.66
23661;18;1801;;;KABUPATEN LAMPUNG BARAT;2016-09-19 16:59:53.585;2016-09-19 16:59:53.585
23813;18;1802;;;KABUPATEN TANGGAMUS;2016-09-19 16:59:55.619;2016-09-19 16:59:55.619
24136;18;1803;;;KABUPATEN LAMPUNG SELATAN;2016-09-19 16:59:58.869;2016-09-19 16:59:58.869
24414;18;1804;;;KABUPATEN LAMPUNG TIMUR;2016-09-19 17:00:01.728;2016-09-19 17:00:01.728
24703;18;1805;;;KABUPATEN LAMPUNG TENGAH;2016-09-19 17:00:04.754;2016-09-19 17:00:04.754
25046;18;1806;;;KABUPATEN LAMPUNG UTARA;2016-09-19 17:00:08.48;2016-09-19 17:00:08.48
25317;18;1807;;;KABUPATEN WAY KANAN;2016-09-19 17:00:11.247;2016-09-19 17:00:11.247
25559;18;1808;;;KABUPATEN TULANGBAWANG;2016-09-19 17:00:13.69;2016-09-19 17:00:13.69
25726;18;1809;;;KABUPATEN PESAWARAN;2016-09-19 17:00:15.515;2016-09-19 17:00:15.515
25882;18;1810;;;KABUPATEN PRINGSEWU;2016-09-19 17:00:17.366;2016-09-19 17:00:17.366
26241;18;1813;;;KABUPATEN PESISIR BARAT;2016-09-19 17:00:21.058;2016-09-19 17:00:21.058
26023;18;1811;;;KABUPATEN MESUJI;2016-09-19 17:00:18.799;2016-09-19 17:00:18.799
26136;18;1812;;;KABUPATEN TULANG BAWANG BARAT;2016-09-19 17:00:19.916;2016-09-19 17:00:19.916
26371;18;1871;;;KOTA BANDAR LAMPUNG;2016-09-19 17:00:22.367;2016-09-19 17:00:22.367
26759;19;1904;;;KABUPATEN BANGKA TENGAH;2016-09-19 17:00:26.484;2016-09-19 17:00:26.484
26891;19;1906;;;KABUPATEN BELITUNG TIMUR;2016-09-19 17:00:28.043;2016-09-19 17:00:28.043
26518;18;1872;;;KOTA METRO;2016-09-19 17:00:23.859;2016-09-19 17:00:23.859
26547;19;1901;;;KABUPATEN BANGKA;2016-09-19 17:00:24.159;2016-09-19 17:00:24.159
26688;19;1903;;;KABUPATEN BANGKA BARAT;2016-09-19 17:00:25.584;2016-09-19 17:00:25.584
26829;19;1905;;;KABUPATEN BANGKA SELATAN;2016-09-19 17:00:27.426;2016-09-19 17:00:27.426
26633;19;1902;;;KABUPATEN BELITUNG;2016-09-19 17:00:25.034;2016-09-19 17:00:25.034
27135;21;2103;;;KABUPATEN NATUNA;2016-09-19 17:00:30.877;2016-09-19 17:00:30.877
26938;19;1971;;;KOTA PANGKAL PINANG;2016-09-19 17:00:28.552;2016-09-19 17:00:28.552
26989;21;2101;;;KABUPATEN KARIMUN;2016-09-19 17:00:29.06;2016-09-19 17:00:29.06
27073;21;2102;;;KABUPATEN BINTAN;2016-09-19 17:00:29.927;2016-09-19 17:00:29.927
27224;21;2104;;;KABUPATEN LINGGA;2016-09-19 17:00:31.736;2016-09-19 17:00:31.736
27316;21;2105;;;KABUPATEN KEPULAUAN ANAMBAS;2016-09-19 17:00:32.678;2016-09-19 17:00:32.678
27378;21;2171;;;KOTA B A T A M;2016-09-19 17:00:33.32;2016-09-19 17:00:33.32
27455;21;2172;;;KOTA TANJUNG PINANG;2016-09-19 17:00:34.162;2016-09-19 17:00:34.162
27640;31;3173;;;KOTA JAKARTA PUSAT;2016-09-19 17:00:36.521;2016-09-19 17:00:36.521
27479;31;3101;;;KABUPATEN KEPULAUAN SERIBU;2016-09-19 17:00:34.412;2016-09-19 17:00:34.412
27564;31;3172;;;KOTA JAKARTA TIMUR;2016-09-19 17:00:35.695;2016-09-19 17:00:35.695
27758;31;3175;;;KOTA JAKARTA UTARA;2016-09-19 17:00:37.679;2016-09-19 17:00:37.679
27797;32;3201;;;KABUPATEN BOGOR;2016-09-19 17:00:38.179;2016-09-19 17:00:38.179
27488;31;3171;;;KOTA JAKARTA SELATAN;2016-09-19 17:00:34.487;2016-09-19 17:00:34.487
27693;31;3174;;;KOTA JAKARTA BARAT;2016-09-19 17:00:37.037;2016-09-19 17:00:37.037
28272;32;3202;;;KABUPATEN SUKABUMI;2016-09-19 17:00:43.489;2016-09-19 17:00:43.489
28706;32;3203;;;KABUPATEN CIANJUR;2016-09-19 17:00:48.09;2016-09-19 17:00:48.09
29099;32;3204;;;KABUPATEN BANDUNG;2016-09-19 17:00:52.4;2016-09-19 17:00:52.4
29411;32;3205;;;KABUPATEN GARUT;2016-09-19 17:00:55.642;2016-09-19 17:00:55.642
29896;32;3206;;;KABUPATEN TASIKMALAYA;2016-09-19 17:01:00.793;2016-09-19 17:01:00.793
30287;32;3207;;;KABUPATEN CIAMIS;2016-09-19 17:01:04.703;2016-09-19 17:01:04.703
30579;32;3208;;;KABUPATEN KUNINGAN;2016-09-19 17:01:08.012;2016-09-19 17:01:08.012
30988;32;3209;;;KABUPATEN CIREBON;2016-09-19 17:01:12.58;2016-09-19 17:01:12.58
31453;32;3210;;;KABUPATEN MAJALENGKA;2016-09-19 17:01:17.456;2016-09-19 17:01:17.456
31823;32;3211;;;KABUPATEN SUMEDANG;2016-09-19 17:01:21.44;2016-09-19 17:01:21.44
32133;32;3212;;;KABUPATEN INDRAMAYU;2016-09-19 17:01:24.833;2016-09-19 17:01:24.833
32482;32;3213;;;KABUPATEN SUBANG;2016-09-19 17:01:28.758;2016-09-19 17:01:28.758
32766;32;3214;;;KABUPATEN PURWAKARTA;2016-09-19 17:01:31.851;2016-09-19 17:01:31.851
32976;32;3215;;;KABUPATEN KARAWANG;2016-09-19 17:01:34.235;2016-09-19 17:01:34.235
33527;32;3217;;;KABUPATEN BANDUNG BARAT;2016-09-19 17:01:40.128;2016-09-19 17:01:40.128
33316;32;3216;;;KABUPATEN BEKASI;2016-09-19 17:01:38.044;2016-09-19 17:01:38.044
33709;32;3218;;;KABUPATEN PANGANDARAN;2016-09-19 17:01:42.587;2016-09-19 17:01:42.587
33888;32;3272;;;KOTA SUKABUMI;2016-09-19 17:01:44.438;2016-09-19 17:01:44.438
33929;32;3273;;;KOTA BANDUNG;2016-09-19 17:01:44.829;2016-09-19 17:01:44.829
33813;32;3271;;;KOTA BOGOR;2016-09-19 17:01:43.654;2016-09-19 17:01:43.654
34208;32;3276;;;KOTA DEPOK;2016-09-19 17:01:48.314;2016-09-19 17:01:48.314
34283;32;3277;;;KOTA CIMAHI;2016-09-19 17:01:49.047;2016-09-19 17:01:49.047
34302;32;3278;;;KOTA TASIKMALAYA;2016-09-19 17:01:49.222;2016-09-19 17:01:49.222
34382;32;3279;;;KOTA BANJAR;2016-09-19 17:01:50.639;2016-09-19 17:01:50.639
34413;33;3301;;;KABUPATEN CILACAP;2016-09-19 17:01:50.989;2016-09-19 17:01:50.989
34111;32;3274;;;KOTA CIREBON;2016-09-19 17:01:47.322;2016-09-19 17:01:47.322
34139;32;3275;;;KOTA BEKASI;2016-09-19 17:01:47.622;2016-09-19 17:01:47.622
34722;33;3302;;;KABUPATEN BANYUMAS;2016-09-19 17:01:54.248;2016-09-19 17:01:54.248
35081;33;3303;;;KABUPATEN PURBALINGGA;2016-09-19 17:01:58.258;2016-09-19 17:01:58.258
35339;33;3304;;;KABUPATEN BANJARNEGARA;2016-09-19 17:02:01.025;2016-09-19 17:02:01.025
35638;33;3305;;;KABUPATEN KEBUMEN;2016-09-19 17:02:04.092;2016-09-19 17:02:04.092
36125;33;3306;;;KABUPATEN PURWOREJO;2016-09-19 17:02:09.227;2016-09-19 17:02:09.227
36636;33;3307;;;KABUPATEN WONOSOBO;2016-09-19 17:02:14.512;2016-09-19 17:02:14.512
36917;33;3308;;;KABUPATEN MAGELANG;2016-09-19 17:02:17.621;2016-09-19 17:02:17.621
37311;33;3309;;;KABUPATEN BOYOLALI;2016-09-19 17:02:21.872;2016-09-19 17:02:21.872
38026;33;3311;;;KABUPATEN SUKOHARJO;2016-09-19 17:02:28.857;2016-09-19 17:02:28.857
37598;33;3310;;;KABUPATEN KLATEN;2016-09-19 17:02:24.639;2016-09-19 17:02:24.639
38206;33;3312;;;KABUPATEN WONOGIRI;2016-09-19 17:02:30.916;2016-09-19 17:02:30.916
38950;33;3315;;;KABUPATEN GROBOGAN;2016-09-19 17:02:38.476;2016-09-19 17:02:38.476
38721;33;3314;;;KABUPATEN SRAGEN;2016-09-19 17:02:36.242;2016-09-19 17:02:36.242
38526;33;3313;;;KABUPATEN KARANGANYAR;2016-09-19 17:02:34.233;2016-09-19 17:02:34.233
39250;33;3316;;;KABUPATEN BLORA;2016-09-19 17:02:41.91;2016-09-19 17:02:41.91
39871;33;3318;;;KABUPATEN PATI;2016-09-19 17:02:48.195;2016-09-19 17:02:48.195
39562;33;3317;;;KABUPATEN REMBANG;2016-09-19 17:02:45.019;2016-09-19 17:02:45.019
40299;33;3319;;;KABUPATEN KUDUS;2016-09-19 17:02:53.063;2016-09-19 17:02:53.063
40441;33;3320;;;KABUPATEN JEPARA;2016-09-19 17:02:54.705;2016-09-19 17:02:54.705
40653;33;3321;;;KABUPATEN DEMAK;2016-09-19 17:02:56.906;2016-09-19 17:02:56.906
40917;33;3322;;;KABUPATEN SEMARANG;2016-09-19 17:02:59.59;2016-09-19 17:02:59.59
41172;33;3323;;;KABUPATEN TEMANGGUNG;2016-09-19 17:03:02.265;2016-09-19 17:03:02.265
41789;33;3325;;;KABUPATEN BATANG;2016-09-19 17:03:08.809;2016-09-19 17:03:08.809
41482;33;3324;;;KABUPATEN KENDAL;2016-09-19 17:03:05.641;2016-09-19 17:03:05.641
42358;33;3327;;;KABUPATEN PEMALANG;2016-09-19 17:03:14.96;2016-09-19 17:03:14.96
42053;33;3326;;;KABUPATEN PEKALONGAN;2016-09-19 17:03:11.559;2016-09-19 17:03:11.559
42595;33;3328;;;KABUPATEN TEGAL;2016-09-19 17:03:17.302;2016-09-19 17:03:17.302
43294;33;3373;;;KOTA SALATIGA;2016-09-19 17:03:24.496;2016-09-19 17:03:24.496
43237;33;3372;;;KOTA SURAKARTA;2016-09-19 17:03:23.812;2016-09-19 17:03:23.812
42901;33;3329;;;KABUPATEN BREBES;2016-09-19 17:03:20.378;2016-09-19 17:03:20.378
43216;33;3371;;;KOTA MAGELANG;2016-09-19 17:03:23.512;2016-09-19 17:03:23.512
43322;33;3374;;;KOTA SEMARANG;2016-09-19 17:03:24.854;2016-09-19 17:03:24.854
43548;33;3376;;;KOTA TEGAL;2016-09-19 17:03:27.247;2016-09-19 17:03:27.247
43581;34;3401;;;KABUPATEN KULON PROGO;2016-09-19 17:03:27.597;2016-09-19 17:03:27.597
43516;33;3375;;;KOTA PEKALONGAN;2016-09-19 17:03:26.922;2016-09-19 17:03:26.922
43682;34;3402;;;KABUPATEN BANTUL;2016-09-19 17:03:28.523;2016-09-19 17:03:28.523
43938;34;3404;;;KABUPATEN SLEMAN;2016-09-19 17:03:31.082;2016-09-19 17:03:31.082
44042;34;3471;;;KOTA YOGYAKARTA;2016-09-19 17:03:32.132;2016-09-19 17:03:32.132
44103;35;3501;;;KABUPATEN PACITAN;2016-09-19 17:03:32.774;2016-09-19 17:03:32.774
43775;34;3403;;;KABUPATEN GUNUNG KIDUL;2016-09-19 17:03:29.365;2016-09-19 17:03:29.365
44287;35;3502;;;KABUPATEN PONOROGO;2016-09-19 17:03:34.849;2016-09-19 17:03:34.849
44616;35;3503;;;KABUPATEN TRENGGALEK;2016-09-19 17:03:38.217;2016-09-19 17:03:38.217
44788;35;3504;;;KABUPATEN TULUNGAGUNG;2016-09-19 17:03:39.792;2016-09-19 17:03:39.792
45079;35;3505;;;KABUPATEN BLITAR;2016-09-19 17:03:42.852;2016-09-19 17:03:42.852
45350;35;3506;;;KABUPATEN KEDIRI;2016-09-19 17:03:45.877;2016-09-19 17:03:45.877
45721;35;3507;;;KABUPATEN MALANG;2016-09-19 17:03:49.595;2016-09-19 17:03:49.595
46145;35;3508;;;KABUPATEN LUMAJANG;2016-09-19 17:03:54.08;2016-09-19 17:03:54.08
46372;35;3509;;;KABUPATEN JEMBER;2016-09-19 17:03:56.706;2016-09-19 17:03:56.706
46652;35;3510;;;KABUPATEN BANYUWANGI;2016-09-19 17:03:59.523;2016-09-19 17:03:59.523
46894;35;3511;;;KABUPATEN BONDOWOSO;2016-09-19 17:04:02.107;2016-09-19 17:04:02.107
47137;35;3512;;;KABUPATEN SITUBONDO;2016-09-19 17:04:04.733;2016-09-19 17:04:04.733
47291;35;3513;;;KABUPATEN PROBOLINGGO;2016-09-19 17:04:06.525;2016-09-19 17:04:06.525
47646;35;3514;;;KABUPATEN PASURUAN;2016-09-19 17:04:10.118;2016-09-19 17:04:10.118
48036;35;3515;;;KABUPATEN SIDOARJO;2016-09-19 17:04:14.21;2016-09-19 17:04:14.21
48408;35;3516;;;KABUPATEN MOJOKERTO;2016-09-19 17:04:18.336;2016-09-19 17:04:18.336
48731;35;3517;;;KABUPATEN JOMBANG;2016-09-19 17:04:21.495;2016-09-19 17:04:21.495
49059;35;3518;;;KABUPATEN NGANJUK;2016-09-19 17:04:24.646;2016-09-19 17:04:24.646
49364;35;3519;;;KABUPATEN MADIUN;2016-09-19 17:04:27.897;2016-09-19 17:04:27.897
49840;35;3521;;;KABUPATEN NGAWI;2016-09-19 17:04:32.707;2016-09-19 17:04:32.707
49586;35;3520;;;KABUPATEN MAGETAN;2016-09-19 17:04:30.231;2016-09-19 17:04:30.231
50077;35;3522;;;KABUPATEN BOJONEGORO;2016-09-19 17:04:35.057;2016-09-19 17:04:35.057
50536;35;3523;;;KABUPATEN TUBAN;2016-09-19 17:04:40.201;2016-09-19 17:04:40.201
50885;35;3524;;;KABUPATEN LAMONGAN;2016-09-19 17:04:43.843;2016-09-19 17:04:43.843
51387;35;3525;;;KABUPATEN GRESIK;2016-09-19 17:04:49.069;2016-09-19 17:04:49.069
51762;35;3526;;;KABUPATEN BANGKALAN;2016-09-19 17:04:53.179;2016-09-19 17:04:53.179
52263;35;3528;;;KABUPATEN PAMEKASAN;2016-09-19 17:04:58.506;2016-09-19 17:04:58.506
52062;35;3527;;;KABUPATEN SAMPANG;2016-09-19 17:04:56.289;2016-09-19 17:04:56.289
52878;35;3572;;;KOTA BLITAR;2016-09-19 17:05:05.041;2016-09-19 17:05:05.041
52466;35;3529;;;KABUPATEN SUMENEP;2016-09-19 17:05:00.748;2016-09-19 17:05:00.748
52828;35;3571;;;KOTA KEDIRI;2016-09-19 17:05:04.524;2016-09-19 17:05:04.524
52903;35;3573;;;KOTA MALANG;2016-09-19 17:05:05.283;2016-09-19 17:05:05.283
53001;35;3575;;;KOTA PASURUAN;2016-09-19 17:05:06.291;2016-09-19 17:05:06.291
53278;35;3579;;;KOTA BATU;2016-09-19 17:05:09.084;2016-09-19 17:05:09.084
53307;36;3601;;;KABUPATEN PANDEGLANG;2016-09-19 17:05:09.384;2016-09-19 17:05:09.384
52966;35;3574;;;KOTA PROBOLINGGO;2016-09-19 17:05:05.949;2016-09-19 17:05:05.949
53092;35;3578;;;KOTA SURABAYA;2016-09-19 17:05:07.141;2016-09-19 17:05:07.141
53040;35;3576;;;KOTA MOJOKERTO;2016-09-19 17:05:06.65;2016-09-19 17:05:06.65
53061;35;3577;;;KOTA MADIUN;2016-09-19 17:05:06.866;2016-09-19 17:05:06.866
53682;36;3602;;;KABUPATEN LEBAK;2016-09-19 17:05:13.71;2016-09-19 17:05:13.71
54056;36;3603;;;KABUPATEN TANGERANG;2016-09-19 17:05:17.427;2016-09-19 17:05:17.427
54716;36;3671;;;KOTA TANGERANG;2016-09-19 17:05:24.196;2016-09-19 17:05:24.196
54360;36;3604;;;KABUPATEN SERANG;2016-09-19 17:05:20.445;2016-09-19 17:05:20.445
54886;36;3673;;;KOTA SERANG;2016-09-19 17:05:25.896;2016-09-19 17:05:25.896
55022;51;5101;;;KABUPATEN JEMBRANA;2016-09-19 17:05:27.263;2016-09-19 17:05:27.263
54834;36;3672;;;KOTA CILEGON;2016-09-19 17:05:25.363;2016-09-19 17:05:25.363
55079;51;5102;;;KABUPATEN TABANAN;2016-09-19 17:05:27.855;2016-09-19 17:05:27.855
54959;36;3674;;;KOTA TANGERANG SELATAN;2016-09-19 17:05:26.663;2016-09-19 17:05:26.663
55223;51;5103;;;KABUPATEN BADUNG;2016-09-19 17:05:29.231;2016-09-19 17:05:29.231
55511;51;5107;;;KABUPATEN KARANG ASEM;2016-09-19 17:05:32.39;2016-09-19 17:05:32.39
55370;51;5105;;;KABUPATEN KLUNGKUNG;2016-09-19 17:05:30.864;2016-09-19 17:05:30.864
55292;51;5104;;;KABUPATEN GIANYAR;2016-09-19 17:05:29.956;2016-09-19 17:05:29.956
55598;51;5108;;;KABUPATEN BULELENG;2016-09-19 17:05:33.423;2016-09-19 17:05:33.423
55434;51;5106;;;KABUPATEN BANGLI;2016-09-19 17:05:31.606;2016-09-19 17:05:31.606
55756;51;5171;;;KOTA DENPASAR;2016-09-19 17:05:35.115;2016-09-19 17:05:35.115
56090;52;5203;;;KABUPATEN LOMBOK TIMUR;2016-09-19 17:05:38.458;2016-09-19 17:05:38.458
55805;52;5201;;;KABUPATEN LOMBOK BARAT;2016-09-19 17:05:35.574;2016-09-19 17:05:35.574
55938;52;5202;;;KABUPATEN LOMBOK TENGAH;2016-09-19 17:05:37.008;2016-09-19 17:05:37.008
56365;52;5204;;;KABUPATEN SUMBAWA;2016-09-19 17:05:41.3;2016-09-19 17:05:41.3
56556;52;5205;;;KABUPATEN DOMPU;2016-09-19 17:05:43.609;2016-09-19 17:05:43.609
56646;52;5206;;;KABUPATEN BIMA;2016-09-19 17:05:44.701;2016-09-19 17:05:44.701
56932;52;5208;;;KABUPATEN LOMBOK UTARA;2016-09-19 17:05:47.835;2016-09-19 17:05:47.835
57073;53;5301;;;KABUPATEN SUMBA BARAT;2016-09-19 17:05:49.202;2016-09-19 17:05:49.202
56858;52;5207;;;KABUPATEN SUMBAWA BARAT;2016-09-19 17:05:47.027;2016-09-19 17:05:47.027
56971;52;5271;;;KOTA MATARAM;2016-09-19 17:05:48.252;2016-09-19 17:05:48.252
57028;52;5272;;;KOTA BIMA;2016-09-19 17:05:48.794;2016-09-19 17:05:48.794
57535;53;5304;;;KABUPATEN TIMOR TENGAH SELATAN;2016-09-19 17:05:53.606;2016-09-19 17:05:53.606
57154;53;5302;;;KABUPATEN SUMBA TIMUR;2016-09-19 17:05:49.997;2016-09-19 17:05:49.997
57333;53;5303;;;KABUPATEN KUPANG;2016-09-19 17:05:51.697;2016-09-19 17:05:51.697
57846;53;5305;;;KABUPATEN TIMOR TENGAH UTARA;2016-09-19 17:05:56.949;2016-09-19 17:05:56.949
58064;53;5306;;;KABUPATEN BELU;2016-09-19 17:05:59.274;2016-09-19 17:05:59.274
58158;53;5307;;;KABUPATEN ALOR;2016-09-19 17:06:00.25;2016-09-19 17:06:00.25
58351;53;5308;;;KABUPATEN LEMBATA;2016-09-19 17:06:02.092;2016-09-19 17:06:02.092
58512;53;5309;;;KABUPATEN FLORES TIMUR;2016-09-19 17:06:03.592;2016-09-19 17:06:03.592
58782;53;5310;;;KABUPATEN SIKKA;2016-09-19 17:06:06.285;2016-09-19 17:06:06.285
58964;53;5311;;;KABUPATEN ENDE;2016-09-19 17:06:08.244;2016-09-19 17:06:08.244
59428;53;5313;;;KABUPATEN MANGGARAI;2016-09-19 17:06:13.003;2016-09-19 17:06:13.003
59264;53;5312;;;KABUPATEN NGADA;2016-09-19 17:06:11.353;2016-09-19 17:06:11.353
59953;53;5317;;;KABUPATEN SUMBA BARAT DAYA;2016-09-19 17:06:18.263;2016-09-19 17:06:18.263
59602;53;5314;;;KABUPATEN ROTE NDAO;2016-09-19 17:06:14.612;2016-09-19 17:06:14.612
59702;53;5315;;;KABUPATEN MANGGARAI BARAT;2016-09-19 17:06:15.679;2016-09-19 17:06:15.679
59882;53;5316;;;KABUPATEN SUMBA TENGAH;2016-09-19 17:06:17.446;2016-09-19 17:06:17.446
60096;53;5318;;;KABUPATEN NAGEKEO;2016-09-19 17:06:19.672;2016-09-19 17:06:19.672
60217;53;5319;;;KABUPATEN MANGGARAI TIMUR;2016-09-19 17:06:20.98;2016-09-19 17:06:20.98
60403;53;5320;;;KABUPATEN SABU RAIJUA;2016-09-19 17:06:22.889;2016-09-19 17:06:22.889
60473;53;5321;;;KABUPATEN MALAKA;2016-09-19 17:06:23.614;2016-09-19 17:06:23.614
60876;61;6102;;;KABUPATEN BENGKAYANG;2016-09-19 17:06:27.507;2016-09-19 17:06:27.507
60613;53;5371;;;KOTA KUPANG;2016-09-19 17:06:24.848;2016-09-19 17:06:24.848
60672;61;6101;;;KABUPATEN SAMBAS;2016-09-19 17:06:25.44;2016-09-19 17:06:25.44
61265;61;6105;;;KABUPATEN SANGGAU;2016-09-19 17:06:31.658;2016-09-19 17:06:31.658
61450;61;6106;;;KABUPATEN KETAPANG;2016-09-19 17:06:33.392;2016-09-19 17:06:33.392
61018;61;6103;;;KABUPATEN LANDAK;2016-09-19 17:06:29.107;2016-09-19 17:06:29.107
61188;61;6104;;;KABUPATEN MEMPAWAH;2016-09-19 17:06:30.849;2016-09-19 17:06:30.849
61720;61;6107;;;KABUPATEN SINTANG;2016-09-19 17:06:35.959;2016-09-19 17:06:35.959
62038;61;6108;;;KABUPATEN KAPUAS HULU;2016-09-19 17:06:39.285;2016-09-19 17:06:39.285
62344;61;6109;;;KABUPATEN SEKADAU;2016-09-19 17:06:42.427;2016-09-19 17:06:42.427
62620;61;6111;;;KABUPATEN KAYONG UTARA;2016-09-19 17:06:45.054;2016-09-19 17:06:45.054
62670;61;6112;;;KABUPATEN KUBU RAYA;2016-09-19 17:06:45.496;2016-09-19 17:06:45.496
62439;61;6110;;;KABUPATEN MELAWI;2016-09-19 17:06:43.336;2016-09-19 17:06:43.336
62797;61;6171;;;KOTA PONTIANAK;2016-09-19 17:06:46.763;2016-09-19 17:06:46.763
63170;62;6203;;;KABUPATEN KAPUAS;2016-09-19 17:06:50.672;2016-09-19 17:06:50.672
62967;62;6202;;;KABUPATEN KOTAWARINGIN TIMUR;2016-09-19 17:06:48.488;2016-09-19 17:06:48.488
62866;62;6201;;;KABUPATEN KOTAWARINGIN BARAT;2016-09-19 17:06:47.488;2016-09-19 17:06:47.488
62833;61;6172;;;KOTA SINGKAWANG;2016-09-19 17:06:47.146;2016-09-19 17:06:47.146
63523;62;6205;;;KABUPATEN BARITO UTARA;2016-09-19 17:06:54.314;2016-09-19 17:06:54.314
63421;62;6204;;;KABUPATEN BARITO SELATAN;2016-09-19 17:06:53.273;2016-09-19 17:06:53.273
63771;62;6208;;;KABUPATEN SERUYAN;2016-09-19 17:06:56.832;2016-09-19 17:06:56.832
63636;62;6206;;;KABUPATEN SUKAMARA;2016-09-19 17:06:55.498;2016-09-19 17:06:55.498
63674;62;6207;;;KABUPATEN LAMANDAU;2016-09-19 17:06:55.84;2016-09-19 17:06:55.84
63882;62;6209;;;KABUPATEN KATINGAN;2016-09-19 17:06:58.107;2016-09-19 17:06:58.107
64165;62;6211;;;KABUPATEN GUNUNG MAS;2016-09-19 17:07:01.1;2016-09-19 17:07:01.1
64305;62;6212;;;KABUPATEN BARITO TIMUR;2016-09-19 17:07:02.483;2016-09-19 17:07:02.483
64057;62;6210;;;KABUPATEN PULANG PISAU;2016-09-19 17:06:59.866;2016-09-19 17:06:59.866
64419;62;6213;;;KABUPATEN MURUNG RAYA;2016-09-19 17:07:03.7;2016-09-19 17:07:03.7
64591;63;6301;;;KABUPATEN TANAH LAUT;2016-09-19 17:07:05.342;2016-09-19 17:07:05.342
64554;62;6271;;;KOTA PALANGKA RAYA;2016-09-19 17:07:04.926;2016-09-19 17:07:04.926
64738;63;6302;;;KABUPATEN KOTA BARU;2016-09-19 17:07:06.726;2016-09-19 17:07:06.726
64962;63;6303;;;KABUPATEN BANJAR;2016-09-19 17:07:09.068;2016-09-19 17:07:09.068
65272;63;6304;;;KABUPATEN BARITO KUALA;2016-09-19 17:07:12.344;2016-09-19 17:07:12.344
65639;63;6306;;;KABUPATEN HULU SUNGAI SELATAN;2016-09-19 17:07:16.17;2016-09-19 17:07:16.17
65799;63;6307;;;KABUPATEN HULU SUNGAI TENGAH;2016-09-19 17:07:17.729;2016-09-19 17:07:17.729
65491;63;6305;;;KABUPATEN TAPIN;2016-09-19 17:07:14.761;2016-09-19 17:07:14.761
65980;63;6308;;;KABUPATEN HULU SUNGAI UTARA;2016-09-19 17:07:19.604;2016-09-19 17:07:19.604
66210;63;6309;;;KABUPATEN TABALONG;2016-09-19 17:07:22.038;2016-09-19 17:07:22.038
66354;63;6310;;;KABUPATEN TANAH BUMBU;2016-09-19 17:07:23.539;2016-09-19 17:07:23.539
66681;63;6371;;;KOTA BANJARMASIN;2016-09-19 17:07:26.606;2016-09-19 17:07:26.606
66515;63;6311;;;KABUPATEN BALANGAN;2016-09-19 17:07:25.106;2016-09-19 17:07:25.106
66739;63;6372;;;KOTA BANJAR BARU;2016-09-19 17:07:27.206;2016-09-19 17:07:27.206
66766;64;6401;;;KABUPATEN PASER;2016-09-19 17:07:27.448;2016-09-19 17:07:27.448
66921;64;6402;;;KABUPATEN KUTAI BARAT;2016-09-19 17:07:28.924;2016-09-19 17:07:28.924
67132;64;6403;;;KABUPATEN KUTAI KARTANEGARA;2016-09-19 17:07:31.049;2016-09-19 17:07:31.049
67542;64;6405;;;KABUPATEN BERAU;2016-09-19 17:07:35.559;2016-09-19 17:07:35.559
67388;64;6404;;;KABUPATEN KUTAI TIMUR;2016-09-19 17:07:34.058;2016-09-19 17:07:34.058
67666;64;6409;;;KABUPATEN PENAJAM PASER UTARA;2016-09-19 17:07:36.659;2016-09-19 17:07:36.659
67912;65;6501;;;KABUPATEN MALINAU;2016-09-19 17:07:39.001;2016-09-19 17:07:39.001
67725;64;6411;;;KABUPATEN MAHAKAM HULU;2016-09-19 17:07:37.234;2016-09-19 17:07:37.234
67822;64;6472;;;KOTA SAMARINDA;2016-09-19 17:07:38.218;2016-09-19 17:07:38.218
67892;64;6474;;;KOTA BONTANG;2016-09-19 17:07:38.835;2016-09-19 17:07:38.835
67781;64;6471;;;KOTA BALIKPAPAN;2016-09-19 17:07:37.793;2016-09-19 17:07:37.793
68037;65;6502;;;KABUPATEN BULUNGAN;2016-09-19 17:07:40.36;2016-09-19 17:07:40.36
68129;65;6503;;;KABUPATEN TANA TIDUNG;2016-09-19 17:07:41.302;2016-09-19 17:07:41.302
68421;65;6571;;;KOTA TARAKAN;2016-09-19 17:07:44.412;2016-09-19 17:07:44.412
68164;65;6504;;;KABUPATEN NUNUKAN;2016-09-19 17:07:41.627;2016-09-19 17:07:41.627
68447;71;7101;;;KABUPATEN BOLAANG MONGONDOW;2016-09-19 17:07:44.662;2016-09-19 17:07:44.662
68961;71;7103;;;KABUPATEN KEPULAUAN SANGIHE;2016-09-19 17:07:49.696;2016-09-19 17:07:49.696
68665;71;7102;;;KABUPATEN MINAHASA;2016-09-19 17:07:46.779;2016-09-19 17:07:46.779
69317;71;7105;;;KABUPATEN MINAHASA SELATAN;2016-09-19 17:07:53.581;2016-09-19 17:07:53.581
69144;71;7104;;;KABUPATEN KEPULAUAN TALAUD;2016-09-19 17:07:51.672;2016-09-19 17:07:51.672
69512;71;7106;;;KABUPATEN MINAHASA UTARA;2016-09-19 17:07:55.648;2016-09-19 17:07:55.648
69762;71;7108;;;KABUPATEN SIAU TAGULANDANG BIARO;2016-09-19 17:07:58.123;2016-09-19 17:07:58.123
69866;71;7109;;;KABUPATEN MINAHASA TENGGARA;2016-09-19 17:07:59.215;2016-09-19 17:07:59.215
69648;71;7107;;;KABUPATEN BOLAANG MONGONDOW UTARA;2016-09-19 17:07:57.056;2016-09-19 17:07:57.056
70424;71;7174;;;KOTA KOTAMOBAGU;2016-09-19 17:08:04.984;2016-09-19 17:08:04.984
70023;71;7110;;;KABUPATEN BOLAANG MONGONDOW SELATAN;2016-09-19 17:08:00.708;2016-09-19 17:08:00.708
70197;71;7171;;;KOTA MANADO;2016-09-19 17:08:02.575;2016-09-19 17:08:02.575
70296;71;7172;;;KOTA BITUNG;2016-09-19 17:08:03.517;2016-09-19 17:08:03.517
70111;71;7111;;;KABUPATEN BOLAANG MONGONDOW TIMUR;2016-09-19 17:08:01.658;2016-09-19 17:08:01.658
70374;71;7173;;;KOTA TOMOHON;2016-09-19 17:08:04.383;2016-09-19 17:08:04.383
70463;72;7201;;;KABUPATEN BANGGAI KEPULAUAN;2016-09-19 17:08:05.35;2016-09-19 17:08:05.35
70620;72;7202;;;KABUPATEN BANGGAI;2016-09-19 17:08:06.851;2016-09-19 17:08:06.851
70981;72;7203;;;KABUPATEN MOROWALI;2016-09-19 17:08:10.485;2016-09-19 17:08:10.485
71314;72;7205;;;KABUPATEN DONGGALA;2016-09-19 17:08:14.036;2016-09-19 17:08:14.036
71124;72;7204;;;KABUPATEN POSO;2016-09-19 17:08:11.985;2016-09-19 17:08:11.985
71498;72;7206;;;KABUPATEN TOLI-TOLI;2016-09-19 17:08:16.036;2016-09-19 17:08:16.036
71613;72;7207;;;KABUPATEN BUOL;2016-09-19 17:08:17.087;2016-09-19 17:08:17.087
71740;72;7208;;;KABUPATEN PARIGI MOUTONG;2016-09-19 17:08:18.42;2016-09-19 17:08:18.42
72047;72;7209;;;KABUPATEN TOJO UNA-UNA;2016-09-19 17:08:21.288;2016-09-19 17:08:21.288
72206;72;7210;;;KABUPATEN SIGI;2016-09-19 17:08:22.988;2016-09-19 17:08:22.988
72609;72;7271;;;KOTA PALU;2016-09-19 17:08:27.106;2016-09-19 17:08:27.106
72399;72;7211;;;KABUPATEN BANGGAI LAUT;2016-09-19 17:08:24.947;2016-09-19 17:08:24.947
72665;73;7301;;;KABUPATEN KEPULAUAN SELAYAR;2016-09-19 17:08:27.623;2016-09-19 17:08:27.623
72765;73;7302;;;KABUPATEN BULUKUMBA;2016-09-19 17:08:28.631;2016-09-19 17:08:28.631
72473;72;7212;;;KABUPATEN MOROWALI UTARA;2016-09-19 17:08:25.772;2016-09-19 17:08:25.772
72912;73;7303;;;KABUPATEN BANTAENG;2016-09-19 17:08:29.932;2016-09-19 17:08:29.932
72988;73;7304;;;KABUPATEN JENEPONTO;2016-09-19 17:08:30.657;2016-09-19 17:08:30.657
73223;73;7306;;;KABUPATEN GOWA;2016-09-19 17:08:32.999;2016-09-19 17:08:32.999
73113;73;7305;;;KABUPATEN TAKALAR;2016-09-19 17:08:31.874;2016-09-19 17:08:31.874
73409;73;7307;;;KABUPATEN SINJAI;2016-09-19 17:08:34.966;2016-09-19 17:08:34.966
73499;73;7308;;;KABUPATEN MAROS;2016-09-19 17:08:35.992;2016-09-19 17:08:35.992
73617;73;7309;;;KABUPATEN PANGKAJENE DAN KEPULAUAN;2016-09-19 17:08:37.192;2016-09-19 17:08:37.192
73797;73;7311;;;KABUPATEN BONE;2016-09-19 17:08:38.992;2016-09-19 17:08:38.992
73734;73;7310;;;KABUPATEN BARRU;2016-09-19 17:08:38.334;2016-09-19 17:08:38.334
74197;73;7312;;;KABUPATEN SOPPENG;2016-09-19 17:08:43.044;2016-09-19 17:08:43.044
74588;73;7315;;;KABUPATEN PINRANG;2016-09-19 17:08:47.295;2016-09-19 17:08:47.295
74276;73;7313;;;KABUPATEN WAJO;2016-09-19 17:08:43.936;2016-09-19 17:08:43.936
74470;73;7314;;;KABUPATEN SIDENRENG RAPPANG;2016-09-19 17:08:45.92;2016-09-19 17:08:45.92
74851;73;7317;;;KABUPATEN LUWU;2016-09-19 17:08:49.913;2016-09-19 17:08:49.913
74709;73;7316;;;KABUPATEN ENREKANG;2016-09-19 17:08:48.454;2016-09-19 17:08:48.454
75101;73;7318;;;KABUPATEN TANA TORAJA;2016-09-19 17:08:52.43;2016-09-19 17:08:52.43
75280;73;7322;;;KABUPATEN LUWU UTARA;2016-09-19 17:08:54.355;2016-09-19 17:08:54.355
75612;73;7326;;;KABUPATEN TORAJA UTARA;2016-09-19 17:08:57.906;2016-09-19 17:08:57.906
75472;73;7325;;;KABUPATEN LUWU TIMUR;2016-09-19 17:08:56.339;2016-09-19 17:08:56.339
75785;73;7371;;;KOTA MAKASSAR;2016-09-19 17:08:59.557;2016-09-19 17:08:59.557
75943;73;7372;;;KOTA PAREPARE;2016-09-19 17:09:01.13;2016-09-19 17:09:01.13
76029;74;7401;;;KABUPATEN BUTON;2016-09-19 17:09:01.981;2016-09-19 17:09:01.981
76132;74;7402;;;KABUPATEN MUNA;2016-09-19 17:09:03.081;2016-09-19 17:09:03.081
75970;73;7373;;;KOTA PALOPO;2016-09-19 17:09:01.414;2016-09-19 17:09:01.414
76711;74;7404;;;KABUPATEN KOLAKA;2016-09-19 17:09:09.033;2016-09-19 17:09:09.033
76330;74;7403;;;KABUPATEN KONAWE;2016-09-19 17:09:05.065;2016-09-19 17:09:05.065
76859;74;7405;;;KABUPATEN KONAWE SELATAN;2016-09-19 17:09:10.725;2016-09-19 17:09:10.725
77667;74;7409;;;KABUPATEN BUTON UTARA;2016-09-19 17:09:19.327;2016-09-19 17:09:19.327
77409;74;7407;;;KABUPATEN WAKATOBI;2016-09-19 17:09:16.502;2016-09-19 17:09:16.502
77246;74;7406;;;KABUPATEN BOMBANA;2016-09-19 17:09:14.801;2016-09-19 17:09:14.801
77518;74;7408;;;KABUPATEN KOLAKA UTARA;2016-09-19 17:09:17.685;2016-09-19 17:09:17.685
77922;74;7411;;;KABUPATEN KOLAKA TIMUR;2016-09-19 17:09:22.028;2016-09-19 17:09:22.028
78068;74;7412;;;KABUPATEN KONAWE KEPULAUAN;2016-09-19 17:09:23.595;2016-09-19 17:09:23.595
77765;74;7410;;;KABUPATEN KONAWE UTARA;2016-09-19 17:09:20.328;2016-09-19 17:09:20.328
78166;74;7413;;;KABUPATEN MUNA BARAT;2016-09-19 17:09:24.62;2016-09-19 17:09:24.62
78264;74;7414;;;KABUPATEN BUTON TENGAH;2016-09-19 17:09:25.621;2016-09-19 17:09:25.621
78349;74;7415;;;KABUPATEN BUTON SELATAN;2016-09-19 17:09:26.504;2016-09-19 17:09:26.504
78427;74;7471;;;KOTA KENDARI;2016-09-19 17:09:27.313;2016-09-19 17:09:27.313
78502;74;7472;;;KOTA BAUBAU;2016-09-19 17:09:28.038;2016-09-19 17:09:28.038
78555;75;7501;;;KABUPATEN BOALEMO;2016-09-19 17:09:28.571;2016-09-19 17:09:28.571
78994;75;7504;;;KABUPATEN BONE BOLANGO;2016-09-19 17:09:33.206;2016-09-19 17:09:33.206
78876;75;7503;;;KABUPATEN POHUWATO;2016-09-19 17:09:31.947;2016-09-19 17:09:31.947
78649;75;7502;;;KABUPATEN GORONTALO;2016-09-19 17:09:29.588;2016-09-19 17:09:29.588
79178;75;7505;;;KABUPATEN GORONTALO UTARA;2016-09-19 17:09:35.131;2016-09-19 17:09:35.131
79313;75;7571;;;KOTA GORONTALO;2016-09-19 17:09:36.54;2016-09-19 17:09:36.54
79374;76;7601;;;KABUPATEN MAJENE;2016-09-19 17:09:37.207;2016-09-19 17:09:37.207
79465;76;7602;;;KABUPATEN POLEWALI MANDAR;2016-09-19 17:09:38.157;2016-09-19 17:09:38.157
79649;76;7603;;;KABUPATEN MAMASA;2016-09-19 17:09:40.099;2016-09-19 17:09:40.099
79959;76;7605;;;KABUPATEN MAMUJU UTARA;2016-09-19 17:09:43.309;2016-09-19 17:09:43.309
79848;76;7604;;;KABUPATEN MAMUJU;2016-09-19 17:09:42.117;2016-09-19 17:09:42.117
80035;76;7606;;;KABUPATEN MAMUJU TENGAH;2016-09-19 17:09:44.059;2016-09-19 17:09:44.059
80393;81;8103;;;KABUPATEN MALUKU TENGAH;2016-09-19 17:09:47.56;2016-09-19 17:09:47.56
80098;81;8101;;;KABUPATEN MALUKU TENGGARA BARAT;2016-09-19 17:09:44.626;2016-09-19 17:09:44.626
80190;81;8102;;;KABUPATEN MALUKU TENGGARA;2016-09-19 17:09:45.518;2016-09-19 17:09:45.518
80599;81;8104;;;KABUPATEN BURU;2016-09-19 17:09:49.619;2016-09-19 17:09:49.619
80693;81;8105;;;KABUPATEN KEPULAUAN ARU;2016-09-19 17:09:50.569;2016-09-19 17:09:50.569
80823;81;8106;;;KABUPATEN SERAM BAGIAN BARAT;2016-09-19 17:09:51.944;2016-09-19 17:09:51.944
80927;81;8107;;;KABUPATEN SERAM BAGIAN TIMUR;2016-09-19 17:09:53.336;2016-09-19 17:09:53.336
81359;81;8171;;;KOTA AMBON;2016-09-19 17:09:57.746;2016-09-19 17:09:57.746
81271;81;8109;;;KABUPATEN BURU SELATAN;2016-09-19 17:09:56.804;2016-09-19 17:09:56.804
81135;81;8108;;;KABUPATEN MALUKU BARAT DAYA;2016-09-19 17:09:55.428;2016-09-19 17:09:55.428
81415;81;8172;;;KOTA TUAL;2016-09-19 17:09:58.254;2016-09-19 17:09:58.254
81452;82;8201;;;KABUPATEN HALMAHERA BARAT;2016-09-19 17:09:58.654;2016-09-19 17:09:58.654
81631;82;8202;;;KABUPATEN HALMAHERA TENGAH;2016-09-19 17:10:00.438;2016-09-19 17:10:00.438
81796;82;8204;;;KABUPATEN HALMAHERA SELATAN;2016-09-19 17:10:02.222;2016-09-19 17:10:02.222
81705;82;8203;;;KABUPATEN KEPULAUAN SULA;2016-09-19 17:10:01.247;2016-09-19 17:10:01.247
82083;82;8205;;;KABUPATEN HALMAHERA UTARA;2016-09-19 17:10:05.298;2016-09-19 17:10:05.298
82299;82;8206;;;KABUPATEN HALMAHERA TIMUR;2016-09-19 17:10:07.524;2016-09-19 17:10:07.524
82773;91;9101;;;KABUPATEN FAKFAK;2016-09-19 17:10:12.534;2016-09-19 17:10:12.534
82414;82;8207;;;KABUPATEN PULAU MOROTAI;2016-09-19 17:10:08.749;2016-09-19 17:10:08.749
82673;82;8272;;;KOTA TIDORE KEPULAUAN;2016-09-19 17:10:11.475;2016-09-19 17:10:11.475
82508;82;8208;;;KABUPATEN PULAU TALIABU;2016-09-19 17:10:09.716;2016-09-19 17:10:09.716
82588;82;8271;;;KOTA TERNATE;2016-09-19 17:10:10.608;2016-09-19 17:10:10.608
82919;91;9102;;;KABUPATEN KAIMANA;2016-09-19 17:10:14.176;2016-09-19 17:10:14.176
83013;91;9103;;;KABUPATEN TELUK WONDAMA;2016-09-19 17:10:15.193;2016-09-19 17:10:15.193
83103;91;9104;;;KABUPATEN TELUK BINTUNI;2016-09-19 17:10:16.16;2016-09-19 17:10:16.16
83573;91;9106;;;KABUPATEN SORONG SELATAN;2016-09-19 17:10:20.961;2016-09-19 17:10:20.961
83390;91;9105;;;KABUPATEN MANOKWARI;2016-09-19 17:10:19.11;2016-09-19 17:10:19.11
83712;91;9107;;;KABUPATEN SORONG;2016-09-19 17:10:22.403;2016-09-19 17:10:22.403
84021;91;9109;;;KABUPATEN TAMBRAUW;2016-09-19 17:10:25.745;2016-09-19 17:10:25.745
83875;91;9108;;;KABUPATEN RAJA AMPAT;2016-09-19 17:10:24.203;2016-09-19 17:10:24.203
84111;91;9110;;;KABUPATEN MAYBRAT;2016-09-19 17:10:26.712;2016-09-19 17:10:26.712
84288;91;9111;;;KABUPATEN MANOKWARI SELATAN;2016-09-19 17:10:28.713;2016-09-19 17:10:28.713
84352;91;9112;;;KABUPATEN PEGUNUNGAN ARFAK;2016-09-19 17:10:29.396;2016-09-19 17:10:29.396
84529;91;9171;;;KOTA SORONG;2016-09-19 17:10:31.272;2016-09-19 17:10:31.272
84582;94;9401;;;KABUPATEN MERAUKE;2016-09-19 17:10:31.864;2016-09-19 17:10:31.864
84771;94;9402;;;KABUPATEN JAYAWIJAYA;2016-09-19 17:10:33.998;2016-09-19 17:10:33.998
85123;94;9403;;;KABUPATEN JAYAPURA;2016-09-19 17:10:37.665;2016-09-19 17:10:37.665
85550;94;9409;;;KABUPATEN BIAK NUMFOR;2016-09-19 17:10:42.183;2016-09-19 17:10:42.183
85287;94;9404;;;KABUPATEN NABIRE;2016-09-19 17:10:39.416;2016-09-19 17:10:39.416
85388;94;9408;;;KABUPATEN KEPULAUAN YAPEN;2016-09-19 17:10:40.424;2016-09-19 17:10:40.424
85832;94;9410;;;KABUPATEN PANIAI;2016-09-19 17:10:45.284;2016-09-19 17:10:45.284
85913;94;9411;;;KABUPATEN PUNCAK JAYA;2016-09-19 17:10:46.076;2016-09-19 17:10:46.076
86242;94;9412;;;KABUPATEN MIMIKA;2016-09-19 17:10:49.518;2016-09-19 17:10:49.518
86408;94;9413;;;KABUPATEN BOVEN DIGOEL;2016-09-19 17:10:51.219;2016-09-19 17:10:51.219
86539;94;9414;;;KABUPATEN MAPPI;2016-09-19 17:10:52.569;2016-09-19 17:10:52.569
86717;94;9415;;;KABUPATEN ASMAT;2016-09-19 17:10:54.461;2016-09-19 17:10:54.461
86958;94;9416;;;KABUPATEN YAHUKIMO;2016-09-19 17:10:56.887;2016-09-19 17:10:56.887
87528;94;9417;;;KABUPATEN PEGUNUNGAN BINTANG;2016-09-19 17:11:02.914;2016-09-19 17:11:02.914
87840;94;9418;;;KABUPATEN TOLIKARA;2016-09-19 17:11:06.349;2016-09-19 17:11:06.349
88422;94;9419;;;KABUPATEN SARMI;2016-09-19 17:11:12.434;2016-09-19 17:11:12.434
88617;94;9426;;;KABUPATEN WAROPEN;2016-09-19 17:11:14.601;2016-09-19 17:11:14.601
88543;94;9420;;;KABUPATEN KEEROM;2016-09-19 17:11:13.784;2016-09-19 17:11:13.784
88745;94;9427;;;KABUPATEN SUPIORI;2016-09-19 17:11:15.926;2016-09-19 17:11:15.926
88899;94;9430;;;KABUPATEN LANNY JAYA;2016-09-19 17:11:17.51;2016-09-19 17:11:17.51
89075;94;9431;;;KABUPATEN MAMBERAMO TENGAH;2016-09-19 17:11:19.31;2016-09-19 17:11:19.31
89140;94;9432;;;KABUPATEN YALIMO;2016-09-19 17:11:20.111;2016-09-19 17:11:20.111
88789;94;9428;;;KABUPATEN MAMBERAMO RAYA;2016-09-19 17:11:16.343;2016-09-19 17:11:16.343
88858;94;9429;;;KABUPATEN NDUGA;2016-09-19 17:11:17.076;2016-09-19 17:11:17.076
89173;94;9433;;;KABUPATEN PUNCAK;2016-09-19 17:11:20.411;2016-09-19 17:11:20.411
89510;94;9471;;;KOTA JAYAPURA;2016-09-19 17:11:23.903;2016-09-19 17:11:23.903
89262;94;9434;;;KABUPATEN DOGIYAI;2016-09-19 17:11:21.294;2016-09-19 17:11:21.294
89352;94;9435;;;KABUPATEN INTAN JAYA;2016-09-19 17:11:22.261;2016-09-19 17:11:22.261
89437;94;9436;;;KABUPATEN DEIYAI;2016-09-19 17:11:23.178;2016-09-19 17:11:23.178
